…
<img src="bootstrapping_files/figure-gfm/unnamed-chunk-6-1.png" width="90%" />

## Drawing many bootstrap samples

``` r
boot_straps = 
  tibble(strap_number = 1:1000) |> 
  mutate(
    strap_sample = map(strap_number, \(i) boot_sample(df = sim_df_nonconst))
  )

boot_straps
```

    ## # A tibble: 1,000 × 2
    ##    strap_number strap_sample      
    ##           <int> <list>            
    ##  1            1 <tibble [250 × 3]>
    ##  2            2 <tibble [250 × 3]>
    ##  3            3 <tibble [250 × 3]>
    ##  4            4 <tibble [250 × 3]>
    ##  5            5 <tibble [250 × 3]>
    ##  6            6 <tibble [250 × 3]>
    ##  7            7 <tibble [250 × 3]>
    ##  8            8 <tibble [250 × 3]>
    ##  9            9 <tibble [250 × 3]>
    ## 10           10 <tibble [250 × 3]>
    ## # ℹ 990 more rows

We can do a few of quick checks to make sure this has worked as
intended. First we’ll look at a couple of bootstrap samples.

``` r
boot_straps |> 
  slice(1:3) |> 
  mutate(strap_sample = map(strap_sample, \(s) arrange(s, x))) |> 
  pull(strap_sample)
```

    ## [[1]]
    ## # A tibble: 250 × 3
    ##         x   error       y
    ##     <dbl>   <dbl>   <dbl>
    ##  1 -1.89   1.62   -2.04  
    ##  2 -1.89   1.62   -2.04  
    ##  3 -1.21  -0.781  -2.43  
    ##  4 -1.21  -0.781  -2.43  
    ##  5 -1.00   0.832  -0.169 
    ##  6 -0.989 -1.97   -2.93  
    ##  7 -0.914 -0.908  -1.65  
    ##  8 -0.606 -0.106   0.0774
    ##  9 -0.536  0.0227  0.413 
    ## 10 -0.524 -0.536  -0.106 
    ## # ℹ 240 more rows
    ## 
    ## [[2]]
    ## # A tibble: 250 × 3
    ##         x  error       y
    ##     <dbl>  <dbl>   <dbl>
    ##  1 -1.29   1.40  -0.454 
    ##  2 -0.989 -1.97  -2.93  
    ##  3 -0.914 -0.908 -1.65  
    ##  4 -0.914 -0.908 -1.65  
    ##  5 -0.805  0.292 -0.123 
    ##  6 -0.805  0.292 -0.123 
    ##  7 -0.665 -0.544 -0.539 
    ##  8 -0.641 -0.416 -0.338 
    ##  9 -0.606 -0.106  0.0774
    ## 10 -0.606 -0.106  0.0774
    ## # ℹ 240 more rows
    ## 
    ## [[3]]
    ## # A tibble: 250 × 3
    ##         x  error      y
    ##     <dbl>  <dbl>  <dbl>
    ##  1 -1.89   1.62  -2.04 
    ##  2 -1.89   1.62  -2.04 
    ##  3 -1.29   1.40  -0.454
    ##  4 -1.29   1.40  -0.454
    ##  5 -1.00   0.832 -0.169
    ##  6 -0.914 -0.908 -1.65 
    ##  7 -0.805  0.292 -0.123
    ##  8 -0.665 -0.544 -0.539
    ##  9 -0.665 -0.544 -0.539
    ## 10 -0.665 -0.544 -0.539
    ## # ℹ 240 more rows
…
``` r
boot_straps = 
  sim_df_nonconst |> 
  modelr::bootstrap(n = 1000)

boot_straps |> pull(strap) |> nth(1)
```

    ## <resample [250 x 3]> 8, 132, 69, 225, 180, 122, 34, 170, 216, 122, ...

``` r
boot_straps |> pull(strap) |> nth(1) |> as_tibble()
```

    ## # A tibble: 250 × 3
    ##         x  error     y
    ##     <dbl>  <dbl> <dbl>
    ##  1  1.74   0.747  7.96
    ##  2  0.411  0.343  3.58
    ##  3  1.15  -1.12   4.34
    ##  4 -0.157 -0.159  1.37
    ##  5  2.21  -1.13   7.50
    ##  6  2.34   0.488  9.52
    ##  7  0.946 -0.498  4.34
    ##  8  1.21   1.55   7.17
    ##  9  2.52   0.528 10.1 
    ## 10  2.34   0.488  9.52
    ## # ℹ 240 more rows
…
